Homework 1
…
Problem 3: What plane (specified by the tailnum variable) traveled the most times from New York City airports in 2013? Please left_join() the resulting table with the table planes (also included in the nycflights13 package).

For the plane with the greatest number of flights and that had more than 50 seats, please create a table where it flew to during 2013.

Code

#Filter flights from NYC and summarizing them for plane
Problem3 <- flights %>% 
              filter(origin %in% c('JFK','LGA','EWR')) %>% #Flights from NYC
              filter(!is.na(tailnum)) %>% #Filter rows with tailnum
              count(tailnum) %>% #Summarise for plane
              arrange(desc(n)) #Sort results
Problem3 #View table.

# A tibble: 4,043 × 2
   tailnum     n
   <chr>   <int>
 1 N725MQ    575
 2 N722MQ    513
 3 N723MQ    507
 4 N711MQ    486
 5 N713MQ    483
 6 N258JB    427
 7 N298JB    407
 8 N353JB    404
 9 N351JB    402
10 N735MQ    396
# ℹ 4,033 more rows

Code

#Join tables to gather more information about planes
Problem3 <- left_join(Problem3,planes, by="tailnum")
Problem3 #View table

# A tibble: 4,043 × 10
   tailnum     n  year type        manufacturer model engines seats speed engine
   <chr>   <int> <int> <chr>       <chr>        <chr>   <int> <int> <int> <chr> 
 1 N725MQ    575    NA <NA>        <NA>         <NA>       NA    NA    NA <NA>  
 2 N722MQ    513    NA <NA>        <NA>         <NA>       NA    NA    NA <NA>  
 3 N723MQ    507    NA <NA>        <NA>         <NA>       NA    NA    NA <NA>  
 4 N711MQ    486  1976 Fixed wing… GULFSTREAM … G115…       2    22    NA Turbo…
 5 N713MQ    483    NA <NA>        <NA>         <NA>       NA    NA    NA <NA>  
 6 N258JB    427  2006 Fixed wing… EMBRAER      ERJ …       2    20    NA Turbo…
 7 N298JB    407  2009 Fixed wing… EMBRAER      ERJ …       2    20    NA Turbo…
 8 N353JB    404  2012 Fixed wing… EMBRAER      ERJ …       2    20    NA Turbo…
 9 N351JB    402  2012 Fixed wing… EMBRAER      ERJ …       2    20    NA Turbo…
10 N735MQ    396    NA <NA>        <NA>         <NA>       NA    NA    NA <NA>  
# ℹ 4,033 more rows
…
# A tibble: 1 × 10
  tailnum     n  year type  manufacturer model engines seats speed engine
  <chr>   <int> <int> <chr> <chr>        <chr>   <int> <int> <int> <chr> 
1 N725MQ    575    NA <NA>  <NA>         <NA>       NA    NA    NA <NA>  

Code

##Unfortunately, there's no data for the plane that traveled the most from NYC in 2013. The plane is the "N725MQ", but there's no information about the model, manufacturer, etc.
##Given that the instructions ask for the plane with more than 50 seats, and the plane identified doesn't have seats information, I will run the code again to filter by seats

Problem3 <- Problem3 %>% 
              filter(seats>=50) #Filter planes with more than 50 seats
Problem3 #View table

# A tibble: 3,200 × 10
   tailnum     n  year type        manufacturer model engines seats speed engine
   <chr>   <int> <int> <chr>       <chr>        <chr>   <int> <int> <int> <chr> 
 1 N328AA    393  1986 Fixed wing… BOEING       767-…       2   255    NA Turbo…
 2 N338AA    388  1987 Fixed wing… BOEING       767-…       2   255    NA Turbo…
 3 N327AA    387  1986 Fixed wing… BOEING       767-…       2   255    NA Turbo…
 4 N335AA    385  1987 Fixed wing… BOEING       767-…       2   255    NA Turbo…
 5 N323AA    357  1986 Fixed wing… BOEING       767-…       2   255    NA Turbo…
 6 N319AA    354  1985 Fixed wing… BOEING       767-…       2   255    NA Turbo…
 7 N336AA    353  1987 Fixed wing… BOEING       767-…       2   255    NA Turbo…
 8 N329AA    344  1987 Fixed wing… BOEING       767-…       2   255    NA Turbo…
 9 N789JB    332  2011 Fixed wing… AIRBUS       A320…       2   200    NA Turbo…
10 N324AA    328  1986 Fixed wing… BOEING       767-…       2   255    NA Turbo…
# ℹ 3,190 more rows
…
-   What is the distribution of temperature (`temp`) in July 2013? Identify any important outliers in terms of the `wind_speed` variable.
-   What is the relationship between `dewp` and `humid`?
-   What is the relationship between `precip` and `visib`?

Code

view (weather) #Understand the table
P4 <- weather %>% 
              filter(month == 7) %>% #July flights
              group_by(day) %>% #Group the info by day
              summarise(P4_avg_weather = mean(temp),
                          P4_avg_ws = mean(wind_speed))
P4 #View table.

# A tibble: 31 × 3
     day P4_avg_weather P4_avg_ws
   <int>          <dbl>     <dbl>
 1     1           74.6      9.69
 2     2           76.3     10.9 
 3     3           77.4      9.32
 4     4           81.0     NA   
 5     5           82.7     10.4 
 6     6           85.7     10.8 
 7     7           85.9     10.9 
 8     8           81.6     11.2 
 9     9           81.2      8.41
10    10           80.6      9.97
# ℹ 21 more rows
…
Code

#Planes with missing date of manufacture

view(planes) #Show table
## Looking at the table, there's no plane without a date of manufacture

#Five most common manufacturers
P5_2 <- planes %>% #Use planes table to summarize it for manufacturers
        filter(!is.na(manufacturer)) %>% #Filter rows with manufacturers
        count(manufacturer) %>% #Summarise for every manufacturer
        arrange(desc(n)) #Sort results
P5_2 #View table.

# A tibble: 35 × 2
   manufacturer                      n
   <chr>                         <int>
 1 BOEING                         1630
 2 AIRBUS INDUSTRIE                400
 3 BOMBARDIER INC                  368
 4 AIRBUS                          336
 5 EMBRAER                         299
 6 MCDONNELL DOUGLAS               120
 7 MCDONNELL DOUGLAS AIRCRAFT CO   103
 8 MCDONNELL DOUGLAS CORPORATION    14
 9 CANADAIR                          9
10 CESSNA                            9
# ℹ 25 more rows
…
#Distribution of manufacturers for planes flying from NYC

P5_3 <- left_join(flights,planes, by="tailnum") %>%  #Join tables
          filter(origin %in% c('JFK','LGA','EWR')) %>%  #Flights from NYC
          group_by(month,manufacturer) %>% #See the evolution for every month
          summarise(count=n())

`summarise()` has grouped output by 'month'. You can override using the
`.groups` argument.

Code

P5_3 #View table

# A tibble: 372 × 3
# Groups:   month [12]
   month manufacturer          count
   <int> <chr>                 <int>
 1     1 AGUSTA SPA                3
 2     1 AIRBUS                 3916
 3     1 AIRBUS INDUSTRIE       3367
 4     1 AMERICAN AIRCRAFT INC     8
 5     1 AVIAT AIRCRAFT INC        5
 6     1 BARKER JACK L            26
 7     1 BEECH                     7
 8     1 BELL                      3
 9     1 BOEING                 6623
10     1 BOMBARDIER INC         1925
# ℹ 362 more rows
…
Code

#Monthly median arrival delay in each airport
P7_1 <- flights %>% 
        group_by(origin,month) %>% #Group by airport and month
        summarise(median_ad=median(arr_delay,na.rm=TRUE)) #Calculate median

`summarise()` has grouped output by 'origin'. You can override using the
`.groups` argument.

Code

P7_1 #View table

# A tibble: 36 × 3
# Groups:   origin [3]
   origin month median_ad
   <chr>  <int>     <dbl>
 1 EWR        1         0
 2 EWR        2        -2
 3 EWR        3        -4
 4 EWR        4        -1
 5 EWR        5        -6
 6 EWR        6        -1
 7 EWR        7        -2
 8 EWR        8        -5
 9 EWR        9       -13
10 EWR       10        -6
# ℹ 26 more rows
Code

#Plot median arrival rate for each AIRLINE, MONTH, and ORIGIN
P7_2 <- flights %>% 
        group_by(carrier,month,origin) %>% #Group by variables
        summarise(median_ad2=median(arr_delay,na.rm=TRUE)) #Calculate median

`summarise()` has grouped output by 'carrier', 'month'. You can override using
the `.groups` argument.

Code

P7_2

# A tibble: 399 × 4
# Groups:   carrier, month [185]
   carrier month origin median_ad2
   <chr>   <int> <chr>       <dbl>
 1 9E          1 EWR          -1  
 2 9E          1 JFK          -4  
 3 9E          1 LGA           0  
 4 9E          2 EWR          -8  
 5 9E          2 JFK          -6  
 6 9E          2 LGA          -1  
 7 9E          3 EWR         -14  
 8 9E          3 JFK         -11  
 9 9E          3 LGA         -11  
10 9E          4 EWR         -15.5
# ℹ 389 more rows
…
